…
* `dplyr` includes a wrapper called `tbl_df` that adds an additional class attribute onto `data.frames` that provides some better data manipulation aesthetics (there's now a dedicated package [`tibble`](www.github.com/hadley/tibble) for this wrapper and it's class)
* Most noticeable differential between `tbl_df` and `data.frame`s is the console output: `tbl_df`s will only print what the current R console window can display
* Can change the default setting for number of displayed columns by changing the options parameter: `options(dplyr.width = Inf)` 


```r
library(dplyr)
library(stringr)
taxi_url <- "http://alizaidi.blob.core.windows.net/training/taxi_df.rds"
taxi_df  <- readRDS(gzcon(url(taxi_url)))
(taxi_df <- tbl_df(taxi_df))
```

```
## # A tibble: 3,770,319 × 16
##    VendorID passenger_count trip_distance RateCodeID store_and_fwd_flag
##       <chr>           <int>         <dbl>      <chr>              <chr>
## 1         1               1          1.80          1                  N
## 2         1               2          0.90          1                  N
## 3         1               1          0.90          1                  N
## 4         1               1          0.30          1                  N
## 5         2               1          0.96          1                  N
## 6         2               1          2.01          1                  N
## 7         2               3          3.14          1                  N
## 8         1               1          0.50          1                  N
## 9         2               1          0.67          1                  N
## 10        2               1         15.20          2                  N
## # ... with 3,770,309 more rows, and 11 more variables: payment_type <chr>,
## #   fare_amount <dbl>, tip_amount <dbl>, tolls_amount <dbl>,
## #   pickup_hour <chr>, pickup_dow <chr>, dropoff_hour <chr>,
## #   dropoff_dow <chr>, pickup_nhood <chr>, dropoff_nhood <chr>,
## #   kSplits <chr>
```
…
## Filter


```r
filter(taxi_df,
       dropoff_dow %in% c("Fri", "Sat", "Sun"),
       tip_amount > 1)
```

```
## # A tibble: 859,165 × 16
##    VendorID passenger_count trip_distance RateCodeID store_and_fwd_flag
##       <chr>           <int>         <dbl>      <chr>              <chr>
## 1         1               2          0.90          1                  N
## 2         1               1          0.90          1                  N
## 3         2               1          2.01          1                  N
## 4         2               3          3.14          1                  N
## 5         2               1          6.08          1                  N
## 6         2               1          1.96          1                  N
## 7         1               1          0.40          1                  N
## 8         1               2          1.70          1                  N
## 9         1               2          0.60          1                  N
## 10        1               2          9.30          1                  N
## # ... with 859,155 more rows, and 11 more variables: payment_type <chr>,
## #   fare_amount <dbl>, tip_amount <dbl>, tolls_amount <dbl>,
## #   pickup_hour <chr>, pickup_dow <chr>, dropoff_hour <chr>,
## #   dropoff_dow <chr>, pickup_nhood <chr>, dropoff_nhood <chr>,
## #   kSplits <chr>
```
…
```r
harlem_pickups <- filter(taxi_df, str_detect(pickup_nhood, "Harlem"))
harlem_pickups
```

```
## # A tibble: 32,025 × 16
##    VendorID passenger_count trip_distance RateCodeID store_and_fwd_flag
##       <chr>           <int>         <dbl>      <chr>              <chr>
## 1         1               1          0.70          1                  N
## 2         1               1          1.10          1                  N
## 3         2               1         18.79          2                  N
## 4         2               1          4.66          1                  N
## 5         2               5          0.67          1                  N
## 6         2               3          0.76          1                  N
## 7         1               1          2.70          1                  N
## 8         2               1          3.19          1                  N
## 9         2               1          0.85          1                  N
## 10        2               2          6.06          1                  N
## # ... with 32,015 more rows, and 11 more variables: payment_type <chr>,
## #   fare_amount <dbl>, tip_amount <dbl>, tolls_amount <dbl>,
## #   pickup_hour <chr>, pickup_dow <chr>, dropoff_hour <chr>,
## #   dropoff_dow <chr>, pickup_nhood <chr>, dropoff_nhood <chr>,
## #   kSplits <chr>
```
…
* You can use the `select()` verb to specify which columns of a dataset you want
* This is similar to the `keep` option in SAS's data step.
* Use a colon `:` to select all the columns between two variables (inclusive)
* Use `contains` to take any columns containing a certain word/phrase/character

## Select Example


```r
select(taxi_df, pickup_nhood, dropoff_nhood, 
       fare_amount, dropoff_hour, trip_distance)
```

```
## # A tibble: 3,770,319 × 5
##           pickup_nhood      dropoff_nhood fare_amount dropoff_hour
##                  <chr>              <chr>       <dbl>        <chr>
## 1  Morningside Heights   Hamilton Heights         9.5         6-10
## 2              Midtown            Midtown         6.5         6-10
## 3      Lower East Side               Soho         7.0         6-10
## 4   Financial District Financial District         3.0         6-10
## 5              Chelsea       West Village         5.5         6-10
## 6      Upper East Side             Harlem         9.5         10-5
## 7           Fort Green               Soho        12.5         12-4
## 8      Upper East Side    Upper East Side         4.0         12-4
## 9      Upper West Side    Upper West Side         5.0         12-4
## 10                <NA>            Clinton        52.0         12-4
## # ... with 3,770,309 more rows, and 1 more variables: trip_distance <dbl>
```
…
## Reordering Data

* You can reorder your dataset based on conditions using the `arrange()` verb
* Use the `desc` function to sort in descending order rather than ascending order (default)

## Arrange


```r
select(arrange(taxi_df, desc(fare_amount), pickup_nhood), 
       fare_amount, pickup_nhood)
```

```
## # A tibble: 3,770,319 × 2
##    fare_amount    pickup_nhood
##          <dbl>           <chr>
## 1      3130.30    Borough Park
## 2      3130.30 Upper West Side
## 3       990.00            <NA>
## 4       900.00    Little Italy
## 5       900.00            <NA>
## 6       630.01         Chelsea
## 7       600.00    Throggs Neck
## 8       500.00       Chinatown
## 9       500.00       Chinatown
## 10      500.00         Clinton
## # ... with 3,770,309 more rows
```
…
# Data Aggregations and Transformations

## Transformations

* The `mutate()` verb can be used to make new columns


```r
taxi_df <- mutate(taxi_df, tip_pct = tip_amount/fare_amount)
select(taxi_df, tip_pct, fare_amount, tip_amount)
```

```
## # A tibble: 3,770,319 × 3
##      tip_pct fare_amount tip_amount
##        <dbl>       <dbl>      <dbl>
## 1  0.0000000         9.5       0.00
## 2  0.2384615         6.5       1.55
## 3  0.2371429         7.0       1.66
## 4  0.0000000         3.0       0.00
## 5  0.2363636         5.5       1.30
## 6  0.2273684         9.5       2.16
## 7  0.2000000        12.5       2.50
## 8  0.2500000         4.0       1.00
## 9  0.2000000         5.0       1.00
## 10 0.2755769        52.0      14.33
## # ... with 3,770,309 more rows
```

## Summarise Data by Groups

* The `group_by` verb creates a grouping by a categorical variable
* Functions can be placed inside `summarise` to create summary functions


```r
summarise(group_by(taxi_df, dropoff_nhood), 
          Num = n(), ave_tip_pct = mean(tip_pct))
```

```
## # A tibble: 122 × 3
##               dropoff_nhood   Num ave_tip_pct
##                       <chr> <int>       <dbl>
## 1                 Annandale    16  0.16486695
## 2             Ardon Heights    16  0.15149972
## 3  Astoria-Long Island City 34728  0.11710247
## 4                Auburndale   424  0.09363095
## 5              Battery Park 32618  0.14849849
## 6                 Bay Ridge  3171  0.14507851
## 7                Baychester   168  0.06078747
## 8              Bedford Park  1028  0.08187483
## 9        Bedford-Stuyvesant 17382  0.12722678
## 10              Bensonhurst  1081  0.12771086
## # ... with 112 more rows
```

## Group By Neighborhoods Example


```r
summarise(group_by(taxi_df, pickup_nhood, dropoff_nhood), 
          Num = n(), ave_tip_pct = mean(tip_pct))
```

```
## Source: local data frame [5,224 x 4]
## Groups: pickup_nhood [?]
## 
##                pickup_nhood            dropoff_nhood   Num ave_tip_pct
##                       <chr>                    <chr> <int>       <dbl>
## 1             Ardon Heights            Ardon Heights     1  0.00000000
## 2  Astoria-Long Island City Astoria-Long Island City  6714  0.09712743
## 3  Astoria-Long Island City               Auburndale    13  0.06520367
## 4  Astoria-Long Island City             Battery Park    14  0.10140865
## 5  Astoria-Long Island City                Bay Ridge     5  0.15388657
## 6  Astoria-Long Island City             Bedford Park     3  0.05550679
## 7  Astoria-Long Island City       Bedford-Stuyvesant    68  0.09819024
## 8  Astoria-Long Island City              Bensonhurst     2  0.00000000
## 9  Astoria-Long Island City              Boerum Hill    12  0.09941085
## 10 Astoria-Long Island City             Borough Park     9  0.08205749
## # ... with 5,214 more rows
```
…
## Standard Code

* Code is executed inside-out.
* Let's arrange the above average tips in descending order, and only look at the locations that had at least 10 dropoffs and pickups.


```r
filter(arrange(summarise(group_by(taxi_df, pickup_nhood, dropoff_nhood), Num = n(), ave_tip_pct = mean(tip_pct)), desc(ave_tip_pct)), Num >= 10)
```

```
## Source: local data frame [2,620 x 4]
## Groups: pickup_nhood [86]
## 
##                pickup_nhood            dropoff_nhood   Num ave_tip_pct
##                       <chr>                    <chr> <int>       <dbl>
## 1              Kings Bridge             Kings Bridge    11   1.2256871
## 2           Upper East Side              Brownsville    23   0.9447013
## 3                 Bay Ridge                Bay Ridge    60   0.7915420
## 4             The Rockaways            The Rockaways    33   0.7828405
## 5  Gravesend-Sheepshead Bay Gravesend-Sheepshead Bay    80   0.5122171
## 6                      <NA>                     <NA> 27834   0.4725437
## 7               Bensonhurst              Bensonhurst    59   0.4512018
## 8           Upper East Side           Spuyten Duyvil    65   0.3463543
## 9                      Soho               Mott Haven    12   0.3239580
## 10             Bedford Park             Bedford Park    30   0.3078915
## # ... with 2,610 more rows
```
…
```r
filter(
  arrange(
    summarise(
      group_by(taxi_df, 
               pickup_nhood, dropoff_nhood), 
      Num = n(), 
      ave_tip_pct = mean(tip_pct)), 
    desc(ave_tip_pct)), 
  Num >= 10)
```

```
## Source: local data frame [2,620 x 4]
## Groups: pickup_nhood [86]
## 
##                pickup_nhood            dropoff_nhood   Num ave_tip_pct
##                       <chr>                    <chr> <int>       <dbl>
## 1              Kings Bridge             Kings Bridge    11   1.2256871
## 2           Upper East Side              Brownsville    23   0.9447013
## 3                 Bay Ridge                Bay Ridge    60   0.7915420
## 4             The Rockaways            The Rockaways    33   0.7828405
## 5  Gravesend-Sheepshead Bay Gravesend-Sheepshead Bay    80   0.5122171
## 6                      <NA>                     <NA> 27834   0.4725437
## 7               Bensonhurst              Bensonhurst    59   0.4512018
## 8           Upper East Side           Spuyten Duyvil    65   0.3463543
## 9                      Soho               Mott Haven    12   0.3239580
## 10             Bedford Park             Bedford Park    30   0.3078915
## # ... with 2,610 more rows
```
…
## Put that Function in Your Pipe and...


```r
taxi_df %>% 
  group_by(pickup_nhood, dropoff_nhood) %>% 
  summarize(Num = n(),
            ave_tip_pct = mean(tip_pct)) %>% 
  arrange(desc(ave_tip_pct)) %>% 
  filter(Num >= 10)
```

```
## Source: local data frame [2,620 x 4]
## Groups: pickup_nhood [86]
## 
##                pickup_nhood            dropoff_nhood   Num ave_tip_pct
##                       <chr>                    <chr> <int>       <dbl>
## 1              Kings Bridge             Kings Bridge    11   1.2256871
## 2           Upper East Side              Brownsville    23   0.9447013
## 3                 Bay Ridge                Bay Ridge    60   0.7915420
## 4             The Rockaways            The Rockaways    33   0.7828405
## 5  Gravesend-Sheepshead Bay Gravesend-Sheepshead Bay    80   0.5122171
## 6                      <NA>                     <NA> 27834   0.4725437
## 7               Bensonhurst              Bensonhurst    59   0.4512018
## 8           Upper East Side           Spuyten Duyvil    65   0.3463543
## 9                      Soho               Mott Haven    12   0.3239580
## 10             Bedford Park             Bedford Park    30   0.3078915
## # ... with 2,610 more rows
```
…
```r
mht_url <- "http://alizaidi.blob.core.windows.net/training/manhattan.rds"
manhattan_hoods <- readRDS(gzcon(url(mht_url)))
taxi_df %>% 
  filter(pickup_nhood %in% manhattan_hoods,
         dropoff_nhood %in% manhattan_hoods) %>% 
  group_by(dropoff_nhood, pickup_nhood) %>% 
  summarize(ave_tip = mean(tip_pct), 
            ave_dist = mean(trip_distance)) %>% 
  filter(ave_dist > 3, ave_tip > 0.05)
```

```
## Source: local data frame [398 x 4]
## Groups: dropoff_nhood [27]
## 
##    dropoff_nhood     pickup_nhood    ave_tip  ave_dist
##            <chr>            <chr>      <dbl>     <dbl>
## 1   Battery Park     Central Park 0.12694563  6.149281
## 2   Battery Park          Clinton 0.11996579  4.016902
## 3   Battery Park      East Harlem 0.07116177 10.124000
## 4   Battery Park     East Village 0.14717019  3.537367
## 5   Battery Park Garment District 0.13463903  3.965532
## 6   Battery Park         Gramercy 0.14396885  4.153174
## 7   Battery Park Hamilton Heights 0.06770436  8.843571
## 8   Battery Park           Harlem 0.13829591  9.039286
## 9   Battery Park           Inwood 0.18235294 11.950000
## 10  Battery Park          Midtown 0.13428280  5.496734
## # ... with 388 more rows
```
…
### Model Coefficients

The most commonly used function in the `broom` package is the `tidy` function. This will expand our data.frame and give us the model coefficients


```r
taxi_df %>% sample_n(10^5) %>%  
  group_by(dropoff_dow) %>% 
  do(tidy(lm(tip_pct ~ pickup_nhood + passenger_count + pickup_hour,
     data = .)))
```

```
## Source: local data frame [462 x 6]
## Groups: dropoff_dow [7]
## 
##    dropoff_dow                           term     estimate  std.error
##          <chr>                          <chr>        <dbl>      <dbl>
## 1          Fri                    (Intercept)  0.099907629 0.01925017
## 2          Fri       pickup_nhoodBattery Park  0.054637052 0.02316752
## 3          Fri          pickup_nhoodBay Ridge -0.110090384 0.16314868
## 4          Fri       pickup_nhoodBedford Park -0.098063653 0.11614402
## 5          Fri pickup_nhoodBedford-Stuyvesant  0.014239424 0.04879299
## 6          Fri        pickup_nhoodBensonhurst  0.166945209 0.11615125
## 7          Fri        pickup_nhoodBoerum Hill -0.004801717 0.03874847
## 8          Fri       pickup_nhoodBorough Park  0.167423548 0.16316799
## 9          Fri           pickup_nhoodBushwick  0.084462510 0.06417322
## 10         Fri           pickup_nhoodCanarsie -0.098303714 0.16315576
## # ... with 452 more rows, and 2 more variables: statistic <dbl>,
## #   p.value <dbl>
```
…
